<svg width="40" height="40" viewBox="0 0 40 40" fill="none" xmlns="http://www.w3.org/2000/svg">
<rect y="0.0191345" width="39.9617" height="39.9617" rx="19.9809" fill="#F1F3F6"/>
<mask id="mask0_298_5155" style="mask-type:luminance" maskUnits="userSpaceOnUse" x="11" y="22" width="17" height="8">
<path fill-rule="evenodd" clip-rule="evenodd" d="M11.9883 22.4936H27.813V29.8606H11.9883V22.4936Z" fill="white"/>
</mask>
<g mask="url(#mask0_298_5155)">
<path fill-rule="evenodd" clip-rule="evenodd" d="M19.9007 23.9922C15.6438 23.9922 13.4859 24.7235 13.4859 26.1671C13.4859 27.6237 15.6438 28.362 19.9007 28.362C24.1566 28.362 26.3136 27.6307 26.3136 26.1871C26.3136 24.7305 24.1566 23.9922 19.9007 23.9922ZM19.9017 29.8606C17.9446 29.8606 11.9883 29.8606 11.9883 26.1671C11.9883 22.8743 16.505 22.4936 19.9017 22.4936C21.8588 22.4936 27.8131 22.4936 27.8131 26.1871C27.8131 29.4799 23.2974 29.8606 19.9017 29.8606Z" fill="#0C111A"/>
</g>
<mask id="mask1_298_5155" style="mask-type:luminance" maskUnits="userSpaceOnUse" x="14" y="10" width="12" height="11">
<path fill-rule="evenodd" clip-rule="evenodd" d="M14.5957 10.0096H25.2056V20.618H14.5957V10.0096Z" fill="white"/>
</mask>
<g mask="url(#mask1_298_5155)">
<path fill-rule="evenodd" clip-rule="evenodd" d="M19.9019 11.4358C17.7629 11.4358 16.0226 13.1752 16.0226 15.3141C16.0156 17.4461 17.7429 19.1844 19.8729 19.1924L19.9019 19.9057V19.1924C22.0398 19.1924 23.7792 17.4521 23.7792 15.3141C23.7792 13.1752 22.0398 11.4358 19.9019 11.4358ZM19.9017 20.6179H19.8697C16.9505 20.6089 14.5857 18.2282 14.5957 15.311C14.5957 12.3888 16.9755 10.0091 19.9017 10.0091C22.8269 10.0091 25.2056 12.3888 25.2056 15.314C25.2056 18.2392 22.8269 20.6179 19.9017 20.6179Z" fill="#0C111A"/>
</g>
</svg>
