<svg width="52" height="52" viewBox="0 0 52 52" fill="none" xmlns="http://www.w3.org/2000/svg">
<rect width="52" height="52" rx="11" fill="#FAF8F8"/>
<path d="M39.3333 16.4671V32.3204C39.3333 33.6137 38.28 34.8004 36.9867 34.9604L36.5733 35.0137C34.3867 35.3071 31.3067 36.2137 28.8267 37.2537C27.96 37.6137 27 36.9604 27 36.0137V17.4671C27 16.9737 27.28 16.5204 27.72 16.2804C30.16 14.9604 33.8533 13.7871 36.36 13.5737H36.44C38.04 13.5737 39.3333 14.8671 39.3333 16.4671Z" fill="#258575"/>
<path d="M24.281 16.2804C21.841 14.9604 18.1476 13.7871 15.641 13.5737H15.5476C13.9476 13.5737 12.6543 14.8671 12.6543 16.4671V32.3204C12.6543 33.6137 13.7076 34.8004 15.001 34.9604L15.4143 35.0137C17.601 35.3071 20.681 36.2137 23.161 37.2537C24.0276 37.6137 24.9876 36.9604 24.9876 36.0137V17.4671C24.9876 16.9604 24.721 16.5204 24.281 16.2804ZM16.6676 20.3204H19.6676C20.2143 20.3204 20.6676 20.7737 20.6676 21.3204C20.6676 21.8804 20.2143 22.3204 19.6676 22.3204H16.6676C16.121 22.3204 15.6676 21.8804 15.6676 21.3204C15.6676 20.7737 16.121 20.3204 16.6676 20.3204ZM20.6676 26.3204H16.6676C16.121 26.3204 15.6676 25.8804 15.6676 25.3204C15.6676 24.7737 16.121 24.3204 16.6676 24.3204H20.6676C21.2143 24.3204 21.6676 24.7737 21.6676 25.3204C21.6676 25.8804 21.2143 26.3204 20.6676 26.3204Z" fill="#258575"/>
</svg>
