<svg width="38" height="38" viewBox="0 0 38 38" fill="none" xmlns="http://www.w3.org/2000/svg">
<circle cx="19" cy="19" r="19" fill="#D9D9D9" fill-opacity="0.08"/>
<path d="M29 23.7399V11.6699C29 10.4699 28.02 9.57994 26.83 9.67994H26.77C24.67 9.85994 21.48 10.9299 19.7 12.0499L19.53 12.1599C19.24 12.3399 18.76 12.3399 18.47 12.1599L18.22 12.0099C16.44 10.8999 13.26 9.83994 11.16 9.66994C9.97 9.56994 9 10.4699 9 11.6599V23.7399C9 24.6999 9.78 25.5999 10.74 25.7199L11.03 25.7599C13.2 26.0499 16.55 27.1499 18.47 28.1999L18.51 28.2199C18.78 28.3699 19.21 28.3699 19.47 28.2199C21.39 27.1599 24.75 26.0499 26.93 25.7599L27.26 25.7199C28.22 25.5999 29 24.6999 29 23.7399Z" fill="white" stroke="#292D32" stroke-width="1.5" stroke-linecap="round" stroke-linejoin="round"/>
<path d="M19 12.49V27.49V12.49Z" fill="white"/>
<path d="M19 12.49V27.49" stroke="#292D32" stroke-width="1.5" stroke-linecap="round" stroke-linejoin="round"/>
<path d="M14.75 15.49H12.5" stroke="#292D32" stroke-width="1.5" stroke-linecap="round" stroke-linejoin="round"/>
<path d="M15.5 18.49H12.5" stroke="#292D32" stroke-width="1.5" stroke-linecap="round" stroke-linejoin="round"/>
</svg>
