<svg width="56" height="56" viewBox="0 0 56 56" fill="none" xmlns="http://www.w3.org/2000/svg">
<circle cx="28" cy="28" r="28" fill="#FFF8E6" fill-opacity="0.56"/>
<path d="M28.904 39.6094C29.2704 39.6946 29.3039 40.1744 28.9471 40.2933L26.8405 40.9867C21.5471 42.6933 18.7605 41.2667 17.0405 35.9733L15.3338 30.7067C13.6271 25.4134 15.0405 22.6134 20.3338 20.9067L21.0325 20.6753C21.5696 20.4974 22.0924 21.0362 21.9398 21.5811C21.8642 21.8512 21.7915 22.133 21.7205 22.4267L20.4138 28.0134C18.9471 34.2934 21.0938 37.76 27.3738 39.2534L28.904 39.6094Z" fill="#FFC325"/>
<path d="M34.8929 17.2801L32.6663 16.7601C28.2129 15.7067 25.5596 16.5734 23.9996 19.8001C23.5996 20.6134 23.2796 21.6001 23.0129 22.7334L21.7063 28.3201C20.3996 33.8934 22.1196 36.64 27.6796 37.96L29.9196 38.4934C30.6929 38.68 31.4129 38.8 32.0796 38.8534C36.2396 39.2534 38.4529 37.3067 39.5729 32.4934L40.8796 26.9201C42.1863 21.3467 40.4796 18.5867 34.8929 17.2801ZM32.3863 30.7734C32.2663 31.2267 31.8663 31.5201 31.4129 31.5201C31.3329 31.5201 31.2529 31.5067 31.1596 31.4934L27.2796 30.5067C26.7463 30.3734 26.4263 29.8267 26.5596 29.2934C26.6929 28.7601 27.2396 28.4401 27.7729 28.5734L31.6529 29.5601C32.1996 29.6934 32.5196 30.2401 32.3863 30.7734ZM36.2929 26.2667C36.1729 26.7201 35.7729 27.0134 35.3196 27.0134C35.2396 27.0134 35.1596 27.0001 35.0663 26.9867L28.5996 25.3467C28.0663 25.2134 27.7463 24.6667 27.8796 24.1334C28.0129 23.6001 28.5596 23.2801 29.0929 23.4134L35.5596 25.0534C36.1063 25.1734 36.4263 25.7201 36.2929 26.2667Z" fill="#FFC325"/>
</svg>
