<svg width="56" height="56" viewBox="0 0 56 56" fill="none" xmlns="http://www.w3.org/2000/svg">
<circle cx="28" cy="28" r="28" fill="#E7FFFA" fill-opacity="0.56"/>
<path d="M34.4389 33.8534C35.3322 33.2668 36.5055 33.9067 36.5055 34.9734V36.6934C36.5055 38.3868 35.1855 40.2001 33.5989 40.7334L29.3455 42.1468C28.5989 42.4001 27.3855 42.4001 26.6522 42.1468L22.3989 40.7334C20.7989 40.2001 19.4922 38.3868 19.4922 36.6934V34.9601C19.4922 33.9067 20.6655 33.2668 21.5455 33.8401L24.2922 35.6267C25.3455 36.3334 26.6789 36.6801 28.0122 36.6801C29.3455 36.6801 30.6789 36.3334 31.7322 35.6267L34.4389 33.8534Z" fill="#2BB69C"/>
<path d="M38.64 21.6135L30.6534 16.3735C29.2134 15.4268 26.84 15.4268 25.4 16.3735L17.3734 21.6135C14.8 23.2801 14.8 27.0535 17.3734 28.7335L19.5067 30.1201L25.4 33.9601C26.84 34.9068 29.2134 34.9068 30.6534 33.9601L36.5067 30.1201L38.3334 28.9201V33.0001C38.3334 33.5468 38.7867 34.0001 39.3334 34.0001C39.88 34.0001 40.3334 33.5468 40.3334 33.0001V26.4401C40.8667 24.7201 40.32 22.7201 38.64 21.6135Z" fill="#2BB69C"/>
</svg>
