<svg width="14" height="6" viewBox="0 0 14 6" fill="none" xmlns="http://www.w3.org/2000/svg">
<path d="M13.256 3.25602C13.3974 3.11462 13.3974 2.88538 13.256 2.74398L10.9518 0.439786C10.8104 0.298389 10.5812 0.298389 10.4398 0.439786C10.2984 0.581183 10.2984 0.810432 10.4398 0.951829L12.488 3L10.4398 5.04817C10.2984 5.18957 10.2984 5.41882 10.4398 5.56021C10.5812 5.70161 10.8104 5.70161 10.9518 5.56021L13.256 3.25602ZM0 3.36207H13V2.63793H0V3.36207Z" fill="#F0592A"/>
</svg>
